Visual Analytics by Syiqah: Network graph visualisation with R
…
#To get distinct locations from "location" column
destinations <- cc_data %>%
  distinct(location) %>%
  rename(label = location)

#To create a single dataframe
cc_nodes <- full_join(sources, destinations, by = "label")

#To add an ID column to the nodes data frame
cc_nodes <- cc_nodes %>% 
  rowid_to_column("id")

cc_nodes

# A tibble: 89 x 2
      id label
   <int> <chr>
 1     1 4795 
 2     2 7108 
 3     3 6816 
 4     4 9617 
 5     5 7384 
 6     6 5368 
 7     7 7253 
 8     8 4948 
 9     9 9683 
10    10 8129 
# ... with 79 more rows

Step 4: Create edges list

edges <- cc_data %>%
  #to deal with 2 ID columns
  group_by(last4ccnum, location, Day, Hour) %>%
  #to create a weight column representing no. of letters sent between each set of nodes
  summarise(weight = n()) %>% 
  ungroup()

edges

# A tibble: 1,490 x 5
   last4ccnum location              Day  Hour weight
   <chr>      <chr>               <int> <int>  <int>
 1 1286       Abila Zacharo           6    13      1
 2 1286       Abila Zacharo           9    13      1
 3 1286       Abila Zacharo          13    13      1
 4 1286       Abila Zacharo          16    13      1
 5 1286       Ahaggo Museum          18    14      1
 6 1286       Brew've Been Served     6     8      1
 7 1286       Brew've Been Served     7     7      1
 8 1286       Brew've Been Served     8     8      1
 9 1286       Brew've Been Served     9     8      1
10 1286       Brew've Been Served    10     8      1
# ... with 1,480 more rows
…
#To rename to 'to' column
cc_edges <- cc_edges %>% 
  left_join(cc_nodes, by = c("location" = "label")) %>% 
  rename(to = id)

#To reorder the columns to bring from and to to the left of the data frame
cc_edges <- select(cc_edges, from, to, Day, Hour, weight)

cc_edges

# A tibble: 1,490 x 5
    from    to   Day  Hour weight
   <int> <int> <int> <int>  <int>
 1    27    71     6    13      1
 2    27    71     9    13      1
 3    27    71    13    13      1
 4    27    71    16    13      1
 5    27    87    18    14      1
 6    27    56     6     8      1
 7    27    56     7     7      1
 8    27    56     8     8      1
 9    27    56     9     8      1
10    27    56    10     8      1
# ... with 1,480 more rows
…
